Taller 1 - Visualización y Exploración de bases de datos
…
Calculos de interes

1, Densidad poblacional = Población / MPIO_NAREA.

pobxarea <- full_join_db %>%
  mutate(densidad = poblacion / mpio_narea)
pobxarea

## # A tibble: 4,488 × 9
##    dp    dpnom     dpmp  mpio         ano poblacion llave    mpio_narea densidad
##    <chr> <chr>     <chr> <chr>      <int>     <int> <chr>         <dbl>    <dbl>
##  1 05    Antioquia 05001 Medellin    1985   1384988 05001_1…      375.   3695.  
##  2 05    Antioquia 05001 Medellin    1993   1579444 05001_1…      375.   4214.  
##  3 05    Antioquia 05002 Abejorral   1985     28132 05002_1…      507.     55.5 
##  4 05    Antioquia 05002 Abejorral   1993     26266 05002_1…      507.     51.8 
##  5 05    Antioquia 05004 Abriaqui    1985      2954 05004_1…      297.      9.95
##  6 05    Antioquia 05004 Abriaqui    1993      3210 05004_1…      297.     10.8 
##  7 05    Antioquia 05021 Alejandria  1985      5040 05021_1…      129.     39.1 
##  8 05    Antioquia 05021 Alejandria  1993      4936 05021_1…      129.     38.3 
##  9 05    Antioquia 05030 Amaga       1985     22760 05030_1…       84.1   271.  
## 10 05    Antioquia 05030 Amaga       1993     24532 05030_1…       84.1   292.  
## # ℹ 4,478 more rows
…
pob_2 <- pobxarea %>%
  filter(ano %in% c(1985, 2018)) %>%
  select(dp, dpnom, dpmp, mpio, ano, poblacion) %>%
  pivot_wider(
    names_from = ano,
    values_from = poblacion,
    names_prefix = "Pob_"
  ) %>%
  mutate(
    crec_absoluto = Pob_2018 - Pob_1985,
    crec_porcentual = (Pob_2018 - Pob_1985) / Pob_1985 * 100
  )
print(pob_2)

## # A tibble: 1,122 × 8
##    dp    dpnom     dpmp  mpio    Pob_1985 Pob_2018 crec_absoluto crec_porcentual
##    <chr> <chr>     <chr> <chr>      <int>    <int>         <int>           <dbl>
##  1 05    Antioquia 05001 Medell…  1384988  2281316        896328           64.7 
##  2 05    Antioquia 05002 Abejor…    28132    21068         -7064          -25.1 
##  3 05    Antioquia 05004 Abriaq…     2954     2904           -50           -1.69
##  4 05    Antioquia 05021 Alejan…     5040     4640          -400           -7.94
##  5 05    Antioquia 05030 Amaga      22760    29724          6964           30.6 
##  6 05    Antioquia 05031 Amalfi     19130    26056          6926           36.2 
##  7 05    Antioquia 05034 Andes      41026    44684          3658            8.92
##  8 05    Antioquia 05036 Angelo…     6408     5768          -640           -9.99
##  9 05    Antioquia 05038 Angost…    13596    11524         -2072          -15.2 
## 10 05    Antioquia 05040 Anori      12684    19026          6342           50   
## # ℹ 1,112 more rows
…
